Project 1
…
Conclusion: After reviewing the outliers for each variable, there is only one point we decided to remove, #35. Since we reviewed outliers based on there proximity to other values within the variable, and then looked at the values for other variables for that home to justify including or excluding them, it is possible that we may have overlooked something or perhaps justified something that is more outrageous than it appears from looking at the homes on a case by case basis. This is just a starting point for our model. When we use multiple variables to predict price, we may find more abnormalities or outlies in our data. Therefore, the conclusions made in this section are subject to change.

#removing point #35
Housing1.0 <- Housing[-c(35),]
Housing1.0

## # A tibble: 75 x 11
##       id price  size   lot  bath bedrooms yearbuilt agestandardized garagesize
##    <dbl> <dbl> <dbl> <dbl> <dbl>    <dbl>     <dbl>           <dbl>      <dbl>
##  1     1  388   2.18     4   3          4      1940            -3            0
##  2     2  450   2.05     5   3          4      1957            -1.3          2
##  3     3  386   2.11     5   2          4      1955            -1.5          2
##  4     4  350   1.44     6   1          2      1956            -1.4          1
##  5     5  156.  1.8      1   2          4      1994             2.4          1
##  6     6  220   1.96     5   2          3      1940            -3            1
##  7     7  240.  1.8      4   1.1        4      1958            -1.2          1
##  8     8  207   2.25     4   2          4      1961            -0.9          2
##  9     9  270.  1.92     4   2.1        4      1965            -0.5          2
## 10    10  239.  1.92     5   2.1        3      1968            -0.2          2
## #  with 65 more rows, and 2 more variables: status <chr>, elem <chr>
…
Reviewing our summary for our first model, we see that the residual standard error is 45.36, meaning the actual price of a home deviates, on average, 45,360 dollars from the predicted price on the regression line. That number isnt horrible, but this is our first model, so we want to improve it. R-squared is 0.5383, meaning the predictors in our model can account for 53.83% of the variability in price. The p-value is much less than 0.5, so our model is definitely significant. As far as individual predictors, size, lot, elem = edison, and status = sld are all significant. Based on the vif, our model should do a decent job predicting. None of the variables seem to coordinate very much with other variables. This is good news.

set.seed(1)
train <- sample(75, 60, replace = FALSE)
trainingdata <- Housing1.0[train,]
trainingdata

## # A tibble: 60 x 11
##       id price  size   lot  bath bedrooms yearbuilt agestandardized garagesize
##    <dbl> <dbl> <dbl> <dbl> <dbl>    <dbl>     <dbl>           <dbl>      <dbl>
##  1    20  277   1.44     3   2          3      1948            -2.2          2
##  2    28  330   1.89     2   2          3      1950            -2            1
##  3    43  197   1.85     3   2          4      1964            -0.6          1
##  4    67  270   2.05     3   2.1        3      1977             0.7          2
##  5    15  319   1.86     4   2          4      1925            -4.5          2
##  6    64  374.  1.71     5   1.1        3      1908            -6.2          2
##  7    73  215   2.04     1   1.1        4      1936            -3.4          0
##  8    46  190.  1.91     3   2.1        3      1975             0.5          0
##  9    44  282.  1.89     4   2          3      2005             3.5          2
## 10     5  156.  1.8      1   2          4      1994             2.4          1
## #  with 50 more rows, and 2 more variables: status <chr>, elem <chr>
…
